1 1 1
1 2 2
1 3 1
1 4 1
1 5 2
1 6 1
1 7 1
1 8 1
1 9 1
1 10 1
1 11 2
1 12 2
1 13 1
1 14 1
1 15 1
1 16 1
1 17 1
1 18 1
1 19 1
1 20 1
2 1 1
2 21 1
2 22 1
2 23 2
2 24 1
2 25 2
2 26 2
2 27 1
2 28 3
2 29 3
2 9 2
2 30 1
2 31 2
2 32 1
2 33 1
2 34 1
2 35 1
2 36 1
2 37 1
2 38 1
2 39 1
3 40 3
3 41 1
3 42 1
3 43 2
3 44 1
3 45 1
3 46 1
3 47 1
3 48 1
3 49 1
3 50 1
3 51 1
3 52 1
3 53 1
3 54 1
3 55 1
3 56 1
3 57 1
3 58 1
3 59 1
3 60 1
3 61 1
3 62 1
3 63 1
3 64 1
3 65 1
3 66 1
3 67 1
3 68 1
3 69 1
3 70 1
3 71 1
3 72 1
3 73 1
3 74 1
3 75 1
3 76 1
3 77 1
3 78 3
3 79 1
3 80 1
3 81 1
3 82 1
3 83 1
3 84 1
3 85 1
3 86 1
3 87 1
3 88 1
3 89 1
3 90 1
3 91 1
3 92 1
3 93 1
3 94 1
3 95 1
3 96 1
3 97 1
3 98 1
3 99 1
4 100 2
4 41 1
4 101 1
4 102 1
4 103 1
4 104 3
4 105 3
4 106 1
4 107 1
4 78 1
4 108 1
4 109 1
4 13 1
4 110 1
4 111 1
4 112 1
4 25 1
4 26 1
4 113 1
5 1 1
5 2 2
5 3 1
5 4 1
5 5 2
5 6 1
5 7 1
5 8 1
5 9 1
5 10 1
5 11 2
5 12 2
5 13 1
5 14 1
5 15 1
5 16 1
5 17 1
5 18 1
5 19 1
5 20 1
6 114 4
6 115 1
6 92 1
6 9 1
6 116 3
6 117 3
6 118 1
6 81 1
6 56 1
6 39 1
6 119 1
6 120 2
6 121 1
6 122 1
6 123 1
6 124 1
6 125 1
6 126 1
6 82 1
6 127 1
6 21 1
6 128 1
6 129 1
6 130 1
6 131 1
6 93 1
6 132 1
6 111 1
6 133 1
6 134 1
6 135 1
6 136 1
6 137 1
6 138 1
6 139 1
6 140 1
6 141 1
6 142 1
6 143 1
6 144 1
6 145 1
6 91 1
7 39 1
7 41 1
7 146 1
7 147 1
7 34 1
7 148 1
7 149 1
7 150 1
7 151 1
7 12 1
7 142 1
7 152 1
7 18 1
7 153 1
7 113 1
8 154 1
8 155 2
8 156 2
8 157 2
8 158 2
8 159 2
8 160 2
8 161 1
8 162 2
8 163 2
8 164 2
8 165 2
8 166 2
8 167 2
8 168 2
8 142 2
8 169 1
9 111 1
9 170 1
9 171 1
9 134 1
9 119 1
9 120 4
9 121 1
9 81 1
9 172 1
9 123 1
9 114 1
9 116 1
9 173 1
9 9 1
9 174 3
9 93 2
9 175 1
9 94 1
9 176 1
9 28 1
9 177 1
9 178 1
9 137 1
9 179 2
9 180 2
9 181 1
9 182 1
9 183 1
9 184 1
9 185 1
9 186 1
9 187 1
9 188 1
9 95 1
9 97 1
9 189 1
9 190 1
9 191 1
9 192 1
9 193 1
9 194 1
9 195 1
9 196 1
9 72 1
9 197 1
9 198 1
9 199 1
9 139 1
9 140 1
9 141 1
9 200 1
10 115 1
10 93 1
10 119 3
10 120 3
10 121 2
10 201 1
10 202 1
10 203 1
10 204 1
10 205 2
10 206 2
10 207 1
10 208 2
10 209 1
10 210 1
10 72 3
10 211 4
10 212 1
10 213 1
10 40 2
10 192 3
10 214 1
10 215 1
10 216 1
10 217 1
10 218 2
10 219 1
10 220 1
10 221 1
10 222 2
10 223 1
10 224 1
10 81 4
10 118 2
10 56 2
10 114 3
10 122 2
10 123 3
10 225 1
10 226 1
10 75 1
10 227 1
10 228 1
10 229 1
10 230 1
10 231 1
10 232 2
10 233 1
10 234 1
10 235 1
10 236 1
10 237 1
10 126 2
10 80 1
10 238 1
10 239 1
10 240 1
10 241 1
10 242 1
10 243 1
10 244 1
10 245 1
10 246 1
10 128 1
10 247 1
10 248 1
10 249 1
10 250 1
10 251 1
10 252 1
10 253 1
10 254 1
10 255 1
10 256 1
10 257 1
10 12 1
10 258 1
10 259 2
10 260 1
10 131 1
10 188 1
10 109 1
10 261 1
10 97 1
10 191 2
10 190 1
10 262 1
10 194 1
10 199 1
10 138 1
10 140 2
10 263 1
10 141 1
10 264 1
10 265 1
10 266 1
10 134 1
10 267 1
10 268 1
10 269 1
10 270 1
10 271 1
10 272 1
10 273 1
10 274 1
10 171 1
10 275 1
10 276 1
10 95 1
10 91 1
11 1 1
11 9 1
11 277 1
11 119 2
11 278 6
11 279 3
11 183 3
11 280 3
11 281 1
11 78 1
11 282 1
11 283 1
11 284 4
11 285 3
11 286 1
11 287 1
11 288 1
11 171 1
11 289 1
11 290 1
11 291 1
11 292 2
11 293 2
11 294 2
11 95 2
11 175 1
11 109 1
11 295 1
11 296 1
11 297 1
11 75 1
11 111 1
11 298 1
11 33 1
11 299 1
11 300 1
11 301 1
11 200 1
12 302 2
12 212 2
12 303 1
12 304 1
12 305 1
12 306 1
12 307 1
12 308 1
12 150 1
12 309 2
12 310 1
12 311 1
12 312 1
12 313 1
12 314 2
12 315 2
12 316 1
12 317 1
12 318 1
12 63 1
12 319 1
12 320 1
12 321 1
12 322 1
12 323 1
12 324 1
12 325 1
12 326 1
12 327 1
12 328 1
12 192 1
12 262 1
12 81 2
12 329 1
12 330 1
12 223 1
12 40 4
12 82 4
12 331 2
12 31 2
12 217 1
12 332 1
12 333 1
12 334 1
12 335 1
12 117 1
12 336 1
12 254 1
12 173 1
12 337 1
12 120 1
12 338 1
12 339 1
12 340 1
12 209 2
12 341 1
12 342 1
13 343 1
13 9 1
13 344 3
13 345 1
13 131 5
13 346 5
13 347 5
13 348 3
13 84 4
13 349 1
13 350 1
13 351 2
13 219 1
13 352 1
13 353 1
13 354 1
13 355 1
13 356 1
13 357 1
13 358 1
13 359 1
13 360 1
13 361 1
13 3 2
13 362 1
13 363 1
13 364 1
13 365 2
13 366 2
13 367 2
13 368 1
13 369 1
13 370 1
13 371 2
13 372 1
13 373 1
13 374 1
13 192 1
13 375 1
13 189 1
13 376 1
13 21 1
13 377 1
13 13 1
13 378 1
13 379 1
13 380 1
14 1 1
14 381 1
14 382 1
14 383 1
14 163 1
14 144 1
14 145 1
14 384 2
14 385 4
14 386 2
14 93 3
14 119 3
14 387 2
14 388 3
14 389 3
14 113 1
14 390 1
14 35 2
14 187 2
14 391 2
14 392 2
14 393 2
14 275 2
14 394 1
14 395 2
14 396 2
14 397 4
14 63 3
14 315 1
14 398 2
14 317 1
14 399 1
14 400 1
14 401 1
14 402 1
14 403 1
14 32 1
14 142 1
14 404 1
14 405 1
14 406 1
14 407 1
14 185 1
14 2 1
14 408 1
14 409 1
14 410 1
14 411 1
14 412 1
14 413 1
14 188 1
14 414 1
14 415 1
14 416 1
14 89 1
15 92 1
15 9 1
15 417 1
15 418 2
15 419 1
15 347 5
15 420 3
15 321 6
15 421 1
15 422 1
15 423 2
15 424 1
15 380 1
15 425 1
15 192 3
15 262 3
15 426 1
15 427 1
15 60 2
15 212 1
15 223 1
15 428 1
15 429 1
15 430 1
15 431 1
15 389 1
15 432 1
15 72 3
15 211 3
15 433 1
15 434 2
15 435 1
15 436 1
15 437 1
15 438 1
15 439 1
15 40 2
15 440 1
15 441 1
15 210 1
15 442 1
15 443 1
15 444 1
15 445 1
15 446 12
15 447 1
15 448 1
15 449 1
15 450 1
15 359 1
15 451 1
15 452 1
15 453 1
15 454 1
15 455 1
15 456 11
15 457 2
15 88 1
15 458 1
15 126 1
15 459 1
15 460 1
15 461 1
15 307 1
15 308 1
15 363 1
15 193 6
15 194 1
15 199 2
15 462 1
15 463 7
15 464 3
15 465 2
15 466 1
15 467 1
15 468 3
15 469 12
15 470 3
15 81 1
15 471 1
15 472 7
15 51 1
15 473 1
15 474 1
15 475 1
15 476 1
15 477 1
15 478 2
15 479 2
15 480 1
15 481 1
15 482 1
15 483 1
15 188 2
15 484 1
15 485 1
15 486 1
15 487 1
15 488 1
15 489 1
15 490 2
15 99 2
15 491 1
15 345 2
15 131 2
15 175 1
15 492 1
15 145 1
15 117 1
15 78 1
15 120 1
15 109 1
15 493 1
15 494 1
15 495 1
15 396 1
15 399 1
15 496 1
15 137 1
15 400 1
15 497 1
15 498 1
15 132 1
15 91 1
15 21 1
15 189 1
15 342 1
15 414 1
15 499 1
15 500 1
16 501 2
16 158 1
16 159 1
16 162 1
16 163 1
16 165 1
16 166 1
16 167 1
17 502 1
17 503 1
17 95 1
18 504 1
18 505 2
18 506 2
18 507 1
18 508 1
18 509 1
18 510 1
18 231 2
18 33 1
18 511 1
18 512 1
18 513 1
18 310 1
19 154 1
19 155 2
19 156 2
19 157 2
19 158 3
19 514 1
19 160 2
19 169 1
19 162 3
19 163 3
19 165 3
19 166 3
19 167 3
19 168 3
19 142 3
19 501 1
19 469 2
19 515 2
19 516 2
19 517 1
19 518 1
20 519 1
20 520 1
20 521 2
20 158 2
20 469 2
20 515 2
20 516 2
20 162 2
20 163 2
20 165 2
20 166 2
20 167 2
20 168 2
20 522 1
20 523 1
20 407 1
20 396 1
20 524 1
20 315 1
20 525 1
20 142 1
21 1 1
21 526 2
21 527 2
21 528 1
21 529 1
21 514 4
21 530 1
21 531 1
21 8 2
21 532 1
21 533 1
21 97 1
21 534 1
21 18 1
22 1 1
22 535 1
22 536 3
22 537 2
22 538 3
22 539 4
22 540 1
22 541 1
22 542 1
22 543 1
22 544 1
22 545 1
22 97 2
22 546 2
22 547 1
22 548 1
22 142 1
22 502 1
22 137 2
22 549 1
22 550 1
22 287 1
22 551 2
22 552 1
22 553 1
22 554 1
22 555 1
22 556 1
23 557 1
23 385 2
23 558 2
23 559 4
23 400 2
23 339 3
23 560 2
23 414 1
23 300 1
23 561 1
23 562 1
23 275 1
23 563 1
23 254 1
23 564 1
23 565 3
23 442 1
23 566 1
23 567 1
23 359 3
23 568 1
23 569 2
23 570 1
23 571 2
23 333 1
23 572 1
23 573 1
23 574 1
23 451 3
23 575 3
23 576 2
23 577 2
23 578 2
23 579 2
23 436 2
23 580 2
23 581 4
23 582 2
23 583 2
23 584 1
23 585 1
24 586 3
24 559 11
24 587 1
24 588 1
24 589 1
24 590 1
24 342 3
24 52 2
24 591 4
24 592 2
24 593 1
24 220 3
24 594 2
24 595 1
24 596 1
24 597 1
24 598 1
24 599 1
24 213 2
24 274 1
24 223 1
24 88 8
24 487 2
24 600 2
24 601 1
24 602 1
24 603 1
24 412 1
24 604 1
24 605 1
24 606 1
24 239 3
24 607 2
24 608 1
24 339 2
24 609 1
24 610 1
24 611 1
24 612 1
24 562 2
24 275 3
24 613 1
24 614 1
24 615 1
24 72 3
24 433 1
24 128 2
24 211 3
24 103 1
24 616 1
24 40 1
24 218 1
24 479 1
24 617 2
24 618 2
24 619 1
24 620 1
24 621 1
24 622 1
24 558 1
24 400 1
24 171 1
24 119 1
24 93 1
24 502 1
24 265 1
24 623 2
24 624 1
24 315 2
24 145 1
24 625 2
24 626 2
24 627 2
24 628 2
24 629 1
24 630 1
24 631 1
24 632 1
24 633 1
24 116 1
24 634 1
24 188 1
24 493 1
24 635 1
24 636 1
24 111 1
25 1 1
25 11 6
25 349 1
25 637 1
25 188 3
25 638 1
25 292 1
25 639 1
25 530 1
25 531 1
25 9 1
25 2 2
25 200 2
25 52 1
25 97 1
25 5 1
25 95 1
25 8 1
25 640 1
25 641 1
25 642 1
25 643 1
25 170 1
25 142 2
25 21 1
25 644 1
25 226 1
25 18 1
26 11 1
26 21 1
26 99 1
26 226 1
26 645 1
26 646 1
26 647 1
26 648 1
26 649 1
27 1 1
27 188 1
27 292 1
27 11 4
27 639 1
27 530 1
27 531 1
27 9 1
27 2 2
27 200 2
27 52 1
27 97 1
27 5 2
27 8 1
27 640 1
27 641 1
27 642 1
27 643 1
27 170 1
27 142 2
27 21 1
27 644 1
27 226 1
27 18 1
27 521 1
27 633 1
27 197 1
27 650 1
27 320 1
27 651 1
27 652 1
27 546 2
27 653 1
27 654 1
27 655 1
27 656 1
27 657 1
27 658 1
27 659 1
27 660 1
27 661 1
27 326 1
27 631 1
27 662 1
27 547 1
27 20 1
28 663 1
28 548 1
28 664 4
28 339 1
28 559 12
28 40 3
28 192 1
28 218 4
28 665 2
28 52 4
28 666 2
28 575 2
28 558 4
28 94 1
28 128 1
28 619 1
28 620 1
28 613 1
28 249 1
28 126 2
28 274 1
28 117 2
28 342 1
28 209 2
28 562 3
28 275 3
28 414 3
28 300 3
28 561 3
28 173 1
28 232 2
28 103 2
28 667 1
28 60 1
28 238 1
28 72 1
28 211 1
28 160 1
28 668 1
28 82 3
28 75 3
28 377 3
28 253 1
28 669 2
28 670 1
28 671 1
28 36 1
28 188 2
28 48 1
28 672 1
28 673 1
28 621 1
28 458 1
28 171 3
28 576 1
28 674 1
28 675 1
28 469 1
28 623 1
28 676 1
28 677 1
28 678 1
28 679 1
28 624 1
28 109 1
28 680 1
28 95 1
28 97 1
28 681 1
28 585 1
28 682 1
28 138 1
28 683 1
28 493 1
28 244 1
28 684 1
28 685 1
28 111 1
28 686 1
29 504 1
29 162 1
29 687 1
29 688 1
29 689 1
29 690 1
29 269 1
29 691 1
29 692 1
29 693 1
29 694 1
29 220 1
29 695 1
30 696 2
30 504 1
30 278 2
30 697 1
30 698 1
30 9 1
30 699 1
30 287 1
30 168 1
30 95 1
30 700 1
30 695 2
31 504 1
31 9 1
31 278 4
31 97 1
31 28 1
31 189 1
31 701 2
31 95 2
31 191 1
31 160 1
31 2 1
31 111 2
31 33 1
31 702 1
31 695 1
32 1 1
32 703 1
32 704 1
32 705 1
32 639 1
32 706 1
32 530 1
32 35 1
32 159 1
32 220 1
32 707 1
32 708 1
32 8 2
32 385 1
32 189 1
32 5 1
32 34 1
32 709 1
32 95 1
32 710 2
32 409 1
32 2 1
32 278 1
32 388 1
32 602 1
32 292 1
32 129 1
32 711 1
32 712 1
32 40 1
32 487 1
32 262 1
32 194 1
32 199 1
32 713 1
32 142 1
32 381 1
32 382 1
32 383 1
32 163 1
32 144 1
32 145 1
33 1 1
33 714 1
33 715 1
33 21 2
33 339 2
33 117 2
33 134 1
33 716 1
33 145 1
33 131 1
33 403 1
33 103 1
33 717 1
33 668 2
33 718 1
33 8 1
33 132 1
33 719 1
33 720 1
33 721 1
33 238 1
34 1 1
34 385 2
34 722 1
34 95 3
34 8 5
34 278 1
34 530 1
34 15 1
34 723 1
34 724 1
34 703 1
35 725 2
35 726 1
35 727 3
35 728 3
35 504 1
35 9 1
35 729 1
35 730 1
35 731 1
35 695 1
36 529 1
36 278 5
36 696 2
36 504 1
36 21 1
36 385 2
36 732 1
36 733 1
36 2 3
36 3 1
36 734 1
36 735 1
36 736 1
36 261 1
36 737 1
36 414 1
36 738 1
36 681 1
36 191 1
36 102 1
36 739 1
36 700 1
36 95 1
36 111 1
36 740 1
36 695 1
37 343 1
37 9 1
37 8 4
37 741 1
37 412 3
37 22 1
37 78 1
37 742 1
37 503 1
37 709 1
37 743 1
37 95 4
37 722 1
37 744 1
37 25 1
37 745 1
37 746 1
37 696 1
37 714 1
37 112 1
37 747 1
37 115 1
37 748 1
37 749 1
37 33 1
37 750 1
37 751 1
37 34 1
37 752 1
37 188 1
37 109 1
37 177 1
37 178 1
37 753 1
38 1 1
38 11 1
38 754 1
38 712 2
38 705 1
38 385 1
38 9 1
38 22 1
38 412 1
38 159 1
38 755 2
38 53 2
38 756 1
38 706 1
38 52 1
38 40 1
38 487 1
38 262 1
38 194 1
38 199 1
38 713 1
38 142 1
38 381 1
38 382 1
38 383 1
38 163 1
38 144 1
38 145 1
39 2 2
39 757 2
39 456 2
39 696 2
39 758 2
39 759 2
39 460 2
39 188 1
39 109 1
39 275 1
40 1 1
40 40 2
40 639 1
40 706 2
40 760 1
40 761 1
40 187 1
40 385 2
40 197 1
40 762 2
40 575 1
40 763 1
40 764 4
40 22 1
40 109 1
40 765 1
40 407 1
40 766 1
40 767 1
40 622 1
40 356 1
40 9 1
40 768 1
40 353 1
40 712 1
40 487 1
40 262 1
40 194 1
40 199 1
40 713 1
40 142 1
40 381 1
40 382 1
40 383 1
40 163 1
40 144 1
40 145 1
41 343 1
41 9 1
41 769 1
41 8 4
41 78 3
41 770 1
41 341 2
41 771 6
41 554 2
41 28 4
41 772 1
41 773 3
41 774 3
41 775 3
41 776 3
41 567 3
41 777 3
41 459 1
41 778 1
41 412 2
41 779 1
41 388 1
41 602 3
41 292 1
41 104 3
41 780 1
41 110 1
41 385 1
41 781 2
41 782 1
41 783 1
41 784 1
41 162 1
41 615 1
41 112 2
41 785 2
41 34 2
41 786 1
41 36 1
41 709 1
41 22 2
41 345 1
41 787 1
41 25 1
41 788 1
41 33 1
41 703 1
42 789 2
42 790 2
42 791 2
42 792 1
42 644 1
42 733 1
42 793 1
42 794 1
42 795 1
42 673 1
42 796 1
42 797 1
42 11 2
42 457 3
42 287 1
42 218 1
43 779 1
43 798 1
43 799 1
43 800 1
43 801 1
43 802 1
43 803 1
43 804 1
43 462 1
43 463 1
43 464 1
43 220 2
43 453 1
43 401 1
43 171 6
43 159 8
43 454 1
43 456 1
43 805 5
43 806 1
43 457 1
43 40 7
43 188 4
43 807 1
43 808 1
43 287 1
43 809 1
43 375 1
43 793 1
43 810 1
43 416 1
43 811 1
43 812 3
43 813 2
43 814 1
43 385 1
43 815 1
43 816 1
43 527 3
43 817 2
43 818 1
43 17 1
43 819 1
43 820 1
43 821 1
43 615 1
43 797 1
43 822 1
43 823 1
44 824 2
44 2 2
44 825 2
44 504 1
44 278 1
44 826 3
44 827 1
44 95 3
44 695 1
45 828 1
45 829 1
45 830 1
45 162 1
45 831 1
45 832 2
45 833 1
45 834 1
45 513 1
45 469 2
45 835 1
45 836 1
45 5 1
45 837 1
45 838 1
45 839 2
45 840 1
45 841 1
45 842 1
45 275 1
45 843 1
45 844 1
45 845 1
45 846 1
45 847 1
45 848 2
45 242 2
45 849 1
45 850 1
45 484 1
45 315 1
46 730 1
46 851 3
46 852 2
46 812 2
46 853 1
46 854 1
46 217 1
46 363 2
46 385 4
46 274 1
46 584 1
46 855 1
46 856 1
46 11 1
46 857 1
46 162 1
46 104 1
46 858 1
46 181 1
46 615 1
46 451 2
46 859 1
46 860 1
46 861 1
46 862 1
46 375 1
46 863 1
46 637 1
46 864 1
46 865 1
47 9 1
47 115 2
47 866 1
47 867 1
47 142 1
47 811 1
48 779 1
48 287 1
48 868 1
48 869 1
48 834 1
48 638 1
48 783 1
48 870 1
49 40 2
49 41 1
49 78 4
49 461 3
49 871 2
49 283 2
49 872 1
49 134 2
49 873 1
49 874 1
49 875 2
49 91 1
49 119 1
49 694 1
49 876 1
49 220 1
49 219 1
49 168 1
49 137 1
49 877 1
49 878 1
49 275 1
49 396 1
49 879 1
49 880 1
49 881 1
49 882 1
49 469 1
49 883 1
49 884 1
49 885 1
49 95 1
49 200 1
50 1 1
50 769 1
50 8 3
50 785 1
50 340 2
50 781 1
50 886 1
50 783 1
50 784 1
50 341 1
50 566 1
50 887 1
50 752 1
50 888 2
50 889 2
50 162 1
50 807 1
50 851 1
50 412 2
50 99 1
50 9 1
50 95 1
50 703 1
